<?xml version="1.0" encoding="UTF-8" standalone="no"?>
<svg
   width="1000"
   height="1000"
   viewBox="0 0 1000 1000"
   fill="none"
   version="1.1"
   id="svg52"
   sodipodi:docname="deck.svg"
   inkscape:version="1.2.2 (b0a8486541, 2022-12-01)"
   xmlns:inkscape="http://www.inkscape.org/namespaces/inkscape"
   xmlns:sodipodi="http://sodipodi.sourceforge.net/DTD/sodipodi-0.dtd"
   xmlns="http://www.w3.org/2000/svg"
   xmlns:svg="http://www.w3.org/2000/svg">
  <defs
     id="defs56" />
  <sodipodi:namedview
     id="namedview54"
     pagecolor="#ffffff"
     bordercolor="#000000"
     borderopacity="0.25"
     inkscape:showpageshadow="2"
     inkscape:pageopacity="0.0"
     inkscape:pagecheckerboard="0"
     inkscape:deskcolor="#d1d1d1"
     showgrid="false"
     inkscape:zoom="0.552"
     inkscape:cx="500"
     inkscape:cy="524.45652"
     inkscape:window-width="666"
     inkscape:window-height="727"
     inkscape:window-x="688"
     inkscape:window-y="29"
     inkscape:window-maximized="1"
     inkscape:current-layer="svg52" />
  <rect
     width="466.667"
     height="1000"
     fill="black"
     id="rect46" />
  <rect
     x="533.33301"
     width="466.66699"
     height="1002.3447"
     fill="#000000"
     id="rect48"
     y="0"
     style="stroke-width:1.45506" />
</svg>
